{
  "name": "InterMechnica",
  "year": 1999,
  "nameOfBoss": "Jan",
  "surnameOfBoss": "Kowalski",
  "stadionCapacity": 20000,
  "players": [
    {
      "name": "Robert",
      "surname": "Lewandowski",
      "age": 25,
      "position": "STRIKER"
    },
    {
      "name": "Jakub",
      "surname": "Blaszczykowski",
      "age": 25,
      "position": "DEFENDER"
    },
    {
      "name": "Arkadiusz",
      "surname": "Milik",
      "age": 25,
      "position": "STRIKER"
    },
    {
      "name": "Wojciech",
      "surname": "Szczesny",
      "age": 25,
      "position": "GOALKEPPER"
    }
  ]
}